{
    "$schema": "https://schema.berlin.de/queuemanagement/process.json",
    "amendment": "",
    "appointments": [
        {
            "scope": {
                "id": "313"
            },
            "availability": {
                "id": "94678",
                "weekday": {
                    "monday": "0",
                    "tuesday": "0",
                    "wednesday": "0",
                    "thursday": "0",
                    "friday": "32",
                    "saturday": "0",
                    "sunday": "0"
                },
                "repeat": {
                    "afterWeeks": "1",
                    "weekOfMonth": "0"
                },
                "bookable": {
                    "startInDays": "0",
                    "endInDays": "60"
                },
                "workstationCount": {
                    "public": "2",
                    "callcenter": "2",
                    "intern": "2"
                },
                "multipleSlotsAllowed": "0",
                "slotTimeInMinutes": "10",
                "startDate": "1463954400",
                "endDate": "1609369200",
                "startTime": "08:00:00",
                "endTime": "13:50:00",
                "type": "appointment"
            },
            "slotCount": 0,
            "date": "1464589800"
        }
    ],
    "authKey": "",
    "createIP": "",
    "createTimestamp": "",
    "id": 0,
    "reminderTimestamp": 0,
    "requests": [
        {
            "id": "121151",
            "link": "https://service.berlin.de/dienstleistung/121151/",
            "name": "Reisepass beantragen",
            "source": "dldb"
        },
        {
            "id": "158142",
            "link": "https://service.berlin.de/dienstleistung/158142/",
            "name": "Beglaubigung von Unterschriften",
            "source": "dldb"
        },
        {
            "id": "120703",
            "link": "https://service.berlin.de/dienstleistung/120703/",
            "name": "Personalausweis beantragen",
            "source": "dldb"
        }
    ],
    "scope": {
        "hint": "Bürgeramt | ",
        "id": "313",
        "contact": {
            "name": "Bürgeramt II in Schöneweide",
            "street": "Michael-Brückner-Str. 1, 12439 Berlin",
            "email": "",
            "country": "Germany"
        },
        "preferences": {
            "appointment": {
                "deallocationDuration": "20",
                "endInDaysDefault": "60",
                "multipleSlotsEnabled": "1",
                "reservationDuration": "20",
                "startInDaysDefault": "0"
            },
            "client": {
                "alternateAppointmentUrl": "",
                "amendmentActivated": "1",
                "amendmentLabel": "",
                "emailRequired": "1",
                "telephoneActivated": "1",
                "telephoneRequired": "1"
            },
            "notifications": {
                "confirmationContent": "",
                "headsUpContent": "",
                "headsUpTime": "0"
            },
            "pickup": {
                "alternateName": "Ausgabe",
                "isDefault": "0"
            },
            "queue": {
                "callCountMax": "0",
                "callDisplayText": "Herzlich Willkommen \r\nim Bürgeramt Schöneweide\r\n=====================\r\n\r\nDokumentenausgabe:\r\nPlatz 1-2 Erdgeschoss\r\n\r\nPlätze 10-16\r\n1. Etage\r\n\r\nPlätze 20-28\r\n2. Etage",
                "firstNumber": "1",
                "lastNumber": "399",
                "processingTimeAverage": "12",
                "publishWaitingTimeEnabled": "0",
                "statisticsEnabled": "1"
            },
            "survey": {
                "emailContent": "",
                "enabled": "0",
                "label": ""
            },
            "ticketprinter": {
                "buttonName": "Bürgeramt II in Schöneweide",
                "confirmationEnabled": "0",
                "deactivatedText": "",
                "notificationsAmendmentEnabled": "0",
                "notificationsEnabled": "0",
                "notificationsDelay": "0"
            },
            "workstation": {
                "emergencyEnabled": "1"
            }
        },
        "shortName": "",
        "status": {
            "emergency": {
                "acceptedByWorkstation": "-1",
                "activated": "0",
                "calledByWorkstation": "-1"
            },
            "queue": {
                "ghostWorkstationCount": "-1",
                "givenNumberCount": "72",
                "lastGivenNumber": "73",
                "lastGivenNumberTimestamp": 1458774000
            },
            "ticketprinter": {
                "deactivated": "0"
            }
        },
        "provider": {
            "source": "dldb",
            "id": "122282",
            "link": "https://service.berlin.de/standort/122282/",
            "name": "Bürgeramt Rathaus Tiergarten",
            "contact": {
                "city": "Berlin",
                "country": "Germany",
                "name": "Bürgeramt Rathaus Tiergarten",
                "postalCode": "10551",
                "region": "Berlin",
                "street": "Mathilde-Jacob-Platz",
                "streetNumber": "1"
            }
        }
    },
    "status": ""
}
